Leah Lariscy’s Wastewater Forecasting Repository - Raw data processing
…
  mutate(prop_pos = pcr_pos/pcr_tests)

#Save to processed data folder
saveRDS(covid, here("data/processed_data/all_covid_combined.rds"))
covid

# A tibble: 1,090 × 8
   date       cases.symptom.on…¹ cases…² pcr_t…³ pcr_pos pcr_p…⁴ pcr_p…⁵ prop_…⁶
   <date>                  <dbl>   <dbl>   <dbl>   <dbl>   <dbl>   <dbl>   <dbl>
 1 2020-02-01                  0       0       0       0      NA      NA     NaN
 2 2020-02-02                  0       0       0       0      NA      NA     NaN
 3 2020-02-03                  0       0       0       0      NA      NA     NaN
 4 2020-02-04                  0       0       0       0      NA      NA     NaN
 5 2020-02-05                  0       0       0       0      NA      NA     NaN
 6 2020-02-06                  0       0       0       0      NA      NA     NaN
 7 2020-02-07                  0       0       0       0       0      NA     NaN
 8 2020-02-08                  0       0       0       0       0      NA     NaN
 9 2020-02-09                  0       0       0       0       0      NA     NaN
10 2020-02-10                  1       0       0       0       0      NA     NaN
# … with 1,080 more rows, and abbreviated variable names ¹​cases.symptom.onset,
#   ²​cases.reported, ³​pcr_tests, ⁴​pcr_pos_7dma, ⁵​pcr_pos_14dma, ⁶​prop_pos
…
