Univariate Linear Regressions
…
tidy(fit1) 

# A tibble: 2 × 5
  term          estimate std.error statistic     p.value
  <chr>            <dbl>     <dbl>     <dbl>       <dbl>
1 (Intercept)    -1132.      199.      -5.68 0.000000318
2 log10_vl_7dma     91.6      15.5      5.91 0.000000129

####################################################################################
aug_train1 <- augment(fit1, train)
aug_train1 %>% select(case_pcr_pos_7dma, .pred) #make predictions on train data

# A tibble: 73 × 2
   case_pcr_pos_7dma  .pred
               <dbl>  <dbl>
 1             148.  117.  
 2             229.   86.6 
 3              87.7  27.7 
 4              25.9   9.85
 5              38.6  82.2 
 6              16.5  65.9 
 7             NaN   NaN   
 8              10.4  12.7 
 9              60.4  73.1 
10             252.  119.  
# … with 63 more rows
…
tidy(fit2) 

# A tibble: 2 × 5
  term          estimate std.error statistic     p.value
  <chr>            <dbl>     <dbl>     <dbl>       <dbl>
1 (Intercept)     -23.9      4.90      -4.88 0.00000691 
2 log10_vl_7dma     2.10     0.381      5.51 0.000000617

####################################################################################
aug_train2 <- augment(fit2, train)
aug_train2 %>% select(log_case_pos_7dma, .pred) #make predictions on train data

# A tibble: 73 × 2
   log_case_pos_7dma  .pred
               <dbl>  <dbl>
 1              5.00   4.72
 2              5.43   4.03
 3              4.47   2.69
 4              3.25   2.28
 5              3.65   3.93
 6              2.80   3.56
 7            NaN    NaN   
 8              2.34   2.34
 9              4.10   3.72
10              5.53   4.78
# … with 63 more rows
…
tidy(fit3) 

# A tibble: 2 × 5
  term          estimate std.error statistic  p.value
  <chr>            <dbl>     <dbl>     <dbl>    <dbl>
1 (Intercept)     -180.      25.7      -6.98 1.62e- 9
2 log10_vl_7dma     14.7      2.00      7.38 3.21e-10

####################################################################################
aug_train3 <- augment(fit3, train)
aug_train3 %>% select(case_prop_pos_7dma, .pred) #make predictions on train data

# A tibble: 73 × 2
   case_prop_pos_7dma  .pred
                <dbl>  <dbl>
 1              34.0   21.5 
 2              26.9   16.7 
 3              17.1    7.21
 4               6.13   4.33
 5              10.7   16.0 
 6               5.73  13.4 
 7             NaN    NaN   
 8               3.58   4.79
 9              15.7   14.5 
10              32.6   21.9 
# … with 63 more rows
…
tidy(fit4) 

# A tibble: 2 × 5
  term          estimate std.error statistic       p.value
  <chr>            <dbl>     <dbl>     <dbl>         <dbl>
1 (Intercept)     -15.9      2.74      -5.81 0.000000190  
2 log10_vl_7dma     1.40     0.213      6.54 0.00000000981

####################################################################################
aug_train4 <- augment(fit4, train)
aug_train4 %>% select(log_case_prop_pos_7dma, .pred) #make predictions on train data

# A tibble: 73 × 2
   log_case_prop_pos_7dma  .pred
                    <dbl>  <dbl>
 1                   3.53   3.10
 2                   3.29   2.64
 3                   2.84   1.75
 4                   1.81   1.47
 5                   2.37   2.58
 6                   1.75   2.33
 7                 NaN    NaN   
 8                   1.28   1.52
 9                   2.76   2.44
10                   3.48   3.14
# … with 63 more rows
…
tidy(fit5) 

# A tibble: 2 × 5
  term        estimate std.error statistic     p.value
  <chr>          <dbl>     <dbl>     <dbl>       <dbl>
1 (Intercept)     3.63     9.61      0.378 0.707      
2 pr_7dma         1.21     0.218     5.54  0.000000584

####################################################################################
aug_train5 <- augment(fit5, train)
aug_train5 %>% select(case_pcr_pos_7dma, .pred) #make predictions on train data

# A tibble: 73 × 2
   case_pcr_pos_7dma .pred
               <dbl> <dbl>
 1             148.  116. 
 2             229.   67.2
 3              87.7  42.3
 4              25.9  20.1
 5              38.6  97.3
 6              16.5  65.3
 7             NaN   NaN  
 8              10.4  11.6
 9              60.4  76.8
10             252.  101. 
# … with 63 more rows
…
tidy(fit6) 

# A tibble: 2 × 5
  term        estimate std.error statistic  p.value
  <chr>          <dbl>     <dbl>     <dbl>    <dbl>
1 (Intercept)   1.95     0.202        9.66 3.41e-14
2 pr_7dma       0.0337   0.00458      7.36 4.02e-10

####################################################################################
aug_train6 <- augment(fit6, train)
aug_train6 %>% select(log_case_pos_7dma, .pred) #make predictions on train data

# A tibble: 73 × 2
   log_case_pos_7dma  .pred
               <dbl>  <dbl>
 1              5.00   5.08
 2              5.43   3.72
 3              4.47   3.03
 4              3.25   2.41
 5              3.65   4.56
 6              2.80   3.67
 7            NaN    NaN   
 8              2.34   2.17
 9              4.10   3.99
10              5.53   4.67
# … with 63 more rows
…
tidy(fit7) 

# A tibble: 2 × 5
  term        estimate std.error statistic  p.value
  <chr>          <dbl>     <dbl>     <dbl>    <dbl>
1 (Intercept)    2.80     1.16        2.41 1.89e- 2
2 pr_7dma        0.210    0.0264      7.96 3.50e-11

####################################################################################
aug_train7 <- augment(fit7, train)
aug_train7 %>% select(case_prop_pos_7dma, .pred) #make predictions on train data

# A tibble: 73 × 2
   case_prop_pos_7dma  .pred
                <dbl>  <dbl>
 1              34.0   22.3 
 2              26.9   13.8 
 3              17.1    9.53
 4               6.13   5.66
 5              10.7   19.1 
 6               5.73  13.5 
 7             NaN    NaN   
 8               3.58   4.19
 9              15.7   15.5 
10              32.6   19.8 
# … with 63 more rows
…
tidy(fit8) 

# A tibble: 2 × 5
  term        estimate std.error statistic       p.value
  <chr>          <dbl>     <dbl>     <dbl>         <dbl>
1 (Intercept)    -6.78     2.54      -2.67 0.00946      
2 log_pr_7dma     5.33     0.760      7.00 0.00000000170

####################################################################################
aug_train8 <- augment(fit8, train)
aug_train8 %>% select(case_prop_pos_7dma, .pred) #make predictions on train data

# A tibble: 73 × 2
   case_prop_pos_7dma  .pred
                <dbl>  <dbl>
 1              34.0   17.3 
 2              26.9   14.3 
 3              17.1   11.7 
 4               6.13   7.13
 5              10.7   16.4 
 6               5.73  14.2 
 7             NaN    NaN   
 8               3.58   3.28
 9              15.7   15.1 
10              32.6   16.6 
# … with 63 more rows
…
